{
    "m_SGVersion": 3,
    "m_Type": "UnityEditor.ShaderGraph.GraphData",
    "m_ObjectId": "173c1732dac14410a3522b2c1200fee1",
    "m_Properties": [
        {
            "m_Id": "c11746b13fc7648a9f750eaacf563c17"
        },
        {
            "m_Id": "b4afff439635d285ab4e8ea4a01dfc8b"
        },
        {
            "m_Id": "c1a1890a7e1e1d8bb89086e2d88753df"
        }
    ],
    "m_Keywords": [],
    "m_Dropdowns": [],
    "m_CategoryData": [
        {
            "m_Id": "acb8ae152d234c1fa0ecfa6964c0e626"
        }
    ],
    "m_Nodes": [
        {
            "m_Id": "50530630de1f6e8daed3fc1a1e395e01"
        },
        {
            "m_Id": "d870e879a0d1db8a841c61b19745d769"
        },
        {
            "m_Id": "432583befd4fbf8c89982283c76d43d5"
        },
        {
            "m_Id": "956ccab6f0af248e97ec5c9860138951"
        },
        {
            "m_Id": "74477c623383c78caf562638c8643af9"
        },
        {
            "m_Id": "33ebf501a454a486871fd6d7d91b5888"
        },
        {
            "m_Id": "1794450e91046d8b8b8a4fbc17e0bf58"
        },
        {
            "m_Id": "818804a0b30d9080a6c3eb1a4ad5f67f"
        },
        {
            "m_Id": "731f02f9348a1084b28e61d319a8ddc6"
        },
        {
            "m_Id": "accd05460635048d923d30f91d7775ec"
        },
        {
            "m_Id": "86f3fb89ccf8698295790be1e1fe8b81"
        },
        {
            "m_Id": "0bb7b8b50fa35a89ad0868729a478d15"
        },
        {
            "m_Id": "bb86df7d67ecdf8dbbec1e5f6d2d1f0a"
        },
        {
            "m_Id": "46c2da05de63c38daa63859a93c5faec"
        },
        {
            "m_Id": "f479dfa52aa48280a0b9e9a66d87deef"
        },
        {
            "m_Id": "99b197592589a98d99d00d1f540669d8"
        },
        {
            "m_Id": "593fbcfcd11cc08dad37d8d9151101f3"
        },
        {
            "m_Id": "b40b1ee72c7eb28eb0eaee91164c032b"
        },
        {
            "m_Id": "85c9e4ba7f27ff83b26532c3ca1cea09"
        },
        {
            "m_Id": "ccc5db17d0a5ad80947f669867e247ac"
        },
        {
            "m_Id": "d83fb46e71e99d83a94d63a6600d54bc"
        },
        {
            "m_Id": "85806da33565bd85b179df783dabec24"
        },
        {
            "m_Id": "b29f4fe31f6bfd8d9cceb61faf5dab52"
        }
    ],
    "m_GroupDatas": [
        {
            "m_Id": "592827ea8be748c3a17fc6a0e8bb11a6"
        },
        {
            "m_Id": "cf9814f72b194885bdb057f58309cb49"
        },
        {
            "m_Id": "e75d0c327d6d4a57a863729a9543545b"
        }
    ],
    "m_StickyNoteDatas": [],
    "m_Edges": [
        {
            "m_OutputSlot": {
                "m_Node": {
                    "m_Id": "0bb7b8b50fa35a89ad0868729a478d15"
                },
                "m_SlotId": 0
            },
            "m_InputSlot": {
                "m_Node": {
                    "m_Id": "bb86df7d67ecdf8dbbec1e5f6d2d1f0a"
                },
                "m_SlotId": 0
            }
        },
        {
            "m_OutputSlot": {
                "m_Node": {
                    "m_Id": "1794450e91046d8b8b8a4fbc17e0bf58"
                },
                "m_SlotId": 2
            },
            "m_InputSlot": {
                "m_Node": {
                    "m_Id": "818804a0b30d9080a6c3eb1a4ad5f67f"
                },
                "m_SlotId": 0
            }
        },
        {
            "m_OutputSlot": {
                "m_Node": {
                    "m_Id": "33ebf501a454a486871fd6d7d91b5888"
                },
                "m_SlotId": 3
            },
            "m_InputSlot": {
                "m_Node": {
                    "m_Id": "74477c623383c78caf562638c8643af9"
                },
                "m_SlotId": 0
            }
        },
        {
            "m_OutputSlot": {
                "m_Node": {
                    "m_Id": "33ebf501a454a486871fd6d7d91b5888"
                },
                "m_SlotId": 3
            },
            "m_InputSlot": {
                "m_Node": {
                    "m_Id": "accd05460635048d923d30f91d7775ec"
                },
                "m_SlotId": 0
            }
        },
        {
            "m_OutputSlot": {
                "m_Node": {
                    "m_Id": "432583befd4fbf8c89982283c76d43d5"
                },
                "m_SlotId": 0
            },
            "m_InputSlot": {
                "m_Node": {
                    "m_Id": "1794450e91046d8b8b8a4fbc17e0bf58"
                },
                "m_SlotId": 1
            }
        },
        {
            "m_OutputSlot": {
                "m_Node": {
                    "m_Id": "46c2da05de63c38daa63859a93c5faec"
                },
                "m_SlotId": 1
            },
            "m_InputSlot": {
                "m_Node": {
                    "m_Id": "593fbcfcd11cc08dad37d8d9151101f3"
                },
                "m_SlotId": 0
            }
        },
        {
            "m_OutputSlot": {
                "m_Node": {
                    "m_Id": "593fbcfcd11cc08dad37d8d9151101f3"
                },
                "m_SlotId": 2
            },
            "m_InputSlot": {
                "m_Node": {
                    "m_Id": "b40b1ee72c7eb28eb0eaee91164c032b"
                },
                "m_SlotId": 1
            }
        },
        {
            "m_OutputSlot": {
                "m_Node": {
                    "m_Id": "731f02f9348a1084b28e61d319a8ddc6"
                },
                "m_SlotId": 1
            },
            "m_InputSlot": {
                "m_Node": {
                    "m_Id": "86f3fb89ccf8698295790be1e1fe8b81"
                },
                "m_SlotId": 0
            }
        },
        {
            "m_OutputSlot": {
                "m_Node": {
                    "m_Id": "74477c623383c78caf562638c8643af9"
                },
                "m_SlotId": 1
            },
            "m_InputSlot": {
                "m_Node": {
                    "m_Id": "956ccab6f0af248e97ec5c9860138951"
                },
                "m_SlotId": 0
            }
        },
        {
            "m_OutputSlot": {
                "m_Node": {
                    "m_Id": "818804a0b30d9080a6c3eb1a4ad5f67f"
                },
                "m_SlotId": 1
            },
            "m_InputSlot": {
                "m_Node": {
                    "m_Id": "731f02f9348a1084b28e61d319a8ddc6"
                },
                "m_SlotId": 0
            }
        },
        {
            "m_OutputSlot": {
                "m_Node": {
                    "m_Id": "85806da33565bd85b179df783dabec24"
                },
                "m_SlotId": 3
            },
            "m_InputSlot": {
                "m_Node": {
                    "m_Id": "b29f4fe31f6bfd8d9cceb61faf5dab52"
                },
                "m_SlotId": 0
            }
        },
        {
            "m_OutputSlot": {
                "m_Node": {
                    "m_Id": "85c9e4ba7f27ff83b26532c3ca1cea09"
                },
                "m_SlotId": 3
            },
            "m_InputSlot": {
                "m_Node": {
                    "m_Id": "b29f4fe31f6bfd8d9cceb61faf5dab52"
                },
                "m_SlotId": 1
            }
        },
        {
            "m_OutputSlot": {
                "m_Node": {
                    "m_Id": "86f3fb89ccf8698295790be1e1fe8b81"
                },
                "m_SlotId": 2
            },
            "m_InputSlot": {
                "m_Node": {
                    "m_Id": "0bb7b8b50fa35a89ad0868729a478d15"
                },
                "m_SlotId": 1
            }
        },
        {
            "m_OutputSlot": {
                "m_Node": {
                    "m_Id": "956ccab6f0af248e97ec5c9860138951"
                },
                "m_SlotId": 1
            },
            "m_InputSlot": {
                "m_Node": {
                    "m_Id": "1794450e91046d8b8b8a4fbc17e0bf58"
                },
                "m_SlotId": 0
            }
        },
        {
            "m_OutputSlot": {
                "m_Node": {
                    "m_Id": "99b197592589a98d99d00d1f540669d8"
                },
                "m_SlotId": 1
            },
            "m_InputSlot": {
                "m_Node": {
                    "m_Id": "593fbcfcd11cc08dad37d8d9151101f3"
                },
                "m_SlotId": 1
            }
        },
        {
            "m_OutputSlot": {
                "m_Node": {
                    "m_Id": "accd05460635048d923d30f91d7775ec"
                },
                "m_SlotId": 1
            },
            "m_InputSlot": {
                "m_Node": {
                    "m_Id": "86f3fb89ccf8698295790be1e1fe8b81"
                },
                "m_SlotId": 1
            }
        },
        {
            "m_OutputSlot": {
                "m_Node": {
                    "m_Id": "accd05460635048d923d30f91d7775ec"
                },
                "m_SlotId": 2
            },
            "m_InputSlot": {
                "m_Node": {
                    "m_Id": "0bb7b8b50fa35a89ad0868729a478d15"
                },
                "m_SlotId": 2
            }
        },
        {
            "m_OutputSlot": {
                "m_Node": {
                    "m_Id": "b29f4fe31f6bfd8d9cceb61faf5dab52"
                },
                "m_SlotId": 2
            },
            "m_InputSlot": {
                "m_Node": {
                    "m_Id": "50530630de1f6e8daed3fc1a1e395e01"
                },
                "m_SlotId": 1
            }
        },
        {
            "m_OutputSlot": {
                "m_Node": {
                    "m_Id": "b40b1ee72c7eb28eb0eaee91164c032b"
                },
                "m_SlotId": 2
            },
            "m_InputSlot": {
                "m_Node": {
                    "m_Id": "ccc5db17d0a5ad80947f669867e247ac"
                },
                "m_SlotId": 0
            }
        },
        {
            "m_OutputSlot": {
                "m_Node": {
                    "m_Id": "bb86df7d67ecdf8dbbec1e5f6d2d1f0a"
                },
                "m_SlotId": 1
            },
            "m_InputSlot": {
                "m_Node": {
                    "m_Id": "46c2da05de63c38daa63859a93c5faec"
                },
                "m_SlotId": 0
            }
        },
        {
            "m_OutputSlot": {
                "m_Node": {
                    "m_Id": "bb86df7d67ecdf8dbbec1e5f6d2d1f0a"
                },
                "m_SlotId": 1
            },
            "m_InputSlot": {
                "m_Node": {
                    "m_Id": "f479dfa52aa48280a0b9e9a66d87deef"
                },
                "m_SlotId": 0
            }
        },
        {
            "m_OutputSlot": {
                "m_Node": {
                    "m_Id": "ccc5db17d0a5ad80947f669867e247ac"
                },
                "m_SlotId": 1
            },
            "m_InputSlot": {
                "m_Node": {
                    "m_Id": "85806da33565bd85b179df783dabec24"
                },
                "m_SlotId": 2
            }
        },
        {
            "m_OutputSlot": {
                "m_Node": {
                    "m_Id": "ccc5db17d0a5ad80947f669867e247ac"
                },
                "m_SlotId": 1
            },
            "m_InputSlot": {
                "m_Node": {
                    "m_Id": "85c9e4ba7f27ff83b26532c3ca1cea09"
                },
                "m_SlotId": 2
            }
        },
        {
            "m_OutputSlot": {
                "m_Node": {
                    "m_Id": "d83fb46e71e99d83a94d63a6600d54bc"
                },
                "m_SlotId": 0
            },
            "m_InputSlot": {
                "m_Node": {
                    "m_Id": "33ebf501a454a486871fd6d7d91b5888"
                },
                "m_SlotId": 1
            }
        },
        {
            "m_OutputSlot": {
                "m_Node": {
                    "m_Id": "d870e879a0d1db8a841c61b19745d769"
                },
                "m_SlotId": 0
            },
            "m_InputSlot": {
                "m_Node": {
                    "m_Id": "b40b1ee72c7eb28eb0eaee91164c032b"
                },
                "m_SlotId": 0
            }
        },
        {
            "m_OutputSlot": {
                "m_Node": {
                    "m_Id": "f479dfa52aa48280a0b9e9a66d87deef"
                },
                "m_SlotId": 1
            },
            "m_InputSlot": {
                "m_Node": {
                    "m_Id": "99b197592589a98d99d00d1f540669d8"
                },
                "m_SlotId": 0
            }
        }
    ],
    "m_VertexContext": {
        "m_Position": {
            "x": 45.00004959106445,
            "y": 2.000009059906006
        },
        "m_Blocks": []
    },
    "m_FragmentContext": {
        "m_Position": {
            "x": 45.00004959106445,
            "y": 202.00001525878907
        },
        "m_Blocks": []
    },
    "m_PreviewData": {
        "serializedMesh": {
            "m_SerializedMesh": "{\"mesh\":{\"instanceID\":0}}",
            "m_Guid": ""
        },
        "preventRotation": false
    },
    "m_Path": "Patterns/Complex",
    "m_GraphPrecision": 0,
    "m_PreviewMode": 2,
    "m_OutputNode": {
        "m_Id": "50530630de1f6e8daed3fc1a1e395e01"
    },
    "m_ActiveTargets": []
}

{
    "m_SGVersion": 0,
    "m_Type": "UnityEditor.ShaderGraph.Vector1MaterialSlot",
    "m_ObjectId": "08c99a154240fb8b8341d73c6187e7c5",
    "m_Id": 1,
    "m_DisplayName": "Out",
    "m_SlotType": 1,
    "m_Hidden": false,
    "m_ShaderOutputName": "Out",
    "m_StageCapability": 3,
    "m_Value": 0.0,
    "m_DefaultValue": 0.0,
    "m_Labels": [
        "X"
    ]
}

{
    "m_SGVersion": 0,
    "m_Type": "UnityEditor.ShaderGraph.DynamicVectorMaterialSlot",
    "m_ObjectId": "0a076c84cc5ff98d815a8f6c2149666a",
    "m_Id": 0,
    "m_DisplayName": "Edge1",
    "m_SlotType": 0,
    "m_Hidden": false,
    "m_ShaderOutputName": "Edge1",
    "m_StageCapability": 3,
    "m_Value": {
        "x": 0.4000000059604645,
        "y": 0.0,
        "z": 0.0,
        "w": 0.0
    },
    "m_DefaultValue": {
        "x": 0.0,
        "y": 0.0,
        "z": 0.0,
        "w": 0.0
    }
}

{
    "m_SGVersion": 0,
    "m_Type": "UnityEditor.ShaderGraph.Vector2Node",
    "m_ObjectId": "0bb7b8b50fa35a89ad0868729a478d15",
    "m_Group": {
        "m_Id": "cf9814f72b194885bdb057f58309cb49"
    },
    "m_Name": "Vector 2",
    "m_DrawState": {
        "m_Expanded": true,
        "m_Position": {
            "serializedVersion": "2",
            "x": -1725.9998779296875,
            "y": 233.99996948242188,
            "width": 120.99999237060547,
            "height": 101.0
        }
    },
    "m_Slots": [
        {
            "m_Id": "85db1fd6d82f0184a334d6120e98868b"
        },
        {
            "m_Id": "8e1169a5ff009489a572373b27f69642"
        },
        {
            "m_Id": "5c0fcf5d707588848ee41a6805030b48"
        }
    ],
    "synonyms": [
        "2",
        "v2",
        "vec2",
        "float2"
    ],
    "m_Precision": 0,
    "m_PreviewExpanded": true,
    "m_PreviewMode": 0,
    "m_CustomColors": {
        "m_SerializableColors": []
    },
    "m_Value": {
        "x": 0.0,
        "y": 0.0
    }
}

{
    "m_SGVersion": 0,
    "m_Type": "UnityEditor.ShaderGraph.Vector1MaterialSlot",
    "m_ObjectId": "10d27526d164ee8ba694817df713db11",
    "m_Id": 1,
    "m_DisplayName": "Out",
    "m_SlotType": 0,
    "m_Hidden": false,
    "m_ShaderOutputName": "Out",
    "m_StageCapability": 3,
    "m_Value": 0.0,
    "m_DefaultValue": 0.0,
    "m_Labels": [
        "X"
    ]
}

{
    "m_SGVersion": 0,
    "m_Type": "UnityEditor.ShaderGraph.MultiplyNode",
    "m_ObjectId": "1794450e91046d8b8b8a4fbc17e0bf58",
    "m_Group": {
        "m_Id": "592827ea8be748c3a17fc6a0e8bb11a6"
    },
    "m_Name": "Multiply",
    "m_DrawState": {
        "m_Expanded": true,
        "m_Position": {
            "serializedVersion": "2",
            "x": -2545.999755859375,
            "y": -25.00000762939453,
            "width": 121.99999237060547,
            "height": 118.0
        }
    },
    "m_Slots": [
        {
            "m_Id": "92c60f9b94f15685b7d362a3ce776933"
        },
        {
            "m_Id": "7bf6b4677cacfe8395d341987a0613b5"
        },
        {
            "m_Id": "b5e40673baf68487ae0f517369093477"
        }
    ],
    "synonyms": [
        "multiplication",
        "times",
        "x"
    ],
    "m_Precision": 0,
    "m_PreviewExpanded": false,
    "m_PreviewMode": 0,
    "m_CustomColors": {
        "m_SerializableColors": []
    }
}

{
    "m_SGVersion": 0,
    "m_Type": "UnityEditor.ShaderGraph.Vector2MaterialSlot",
    "m_ObjectId": "18449bcc1fdcbc84890b342d5af82cae",
    "m_Id": 1,
    "m_DisplayName": "Tiling",
    "m_SlotType": 0,
    "m_Hidden": false,
    "m_ShaderOutputName": "Tiling",
    "m_StageCapability": 3,
    "m_Value": {
        "x": 8.0,
        "y": 8.0
    },
    "m_DefaultValue": {
        "x": 0.0,
        "y": 0.0
    },
    "m_Labels": [
        "X",
        "Y"
    ]
}

{
    "m_SGVersion": 0,
    "m_Type": "UnityEditor.ShaderGraph.DynamicVectorMaterialSlot",
    "m_ObjectId": "2546624bc174f08cb877ab4dca60db29",
    "m_Id": 1,
    "m_DisplayName": "Edge2",
    "m_SlotType": 0,
    "m_Hidden": false,
    "m_ShaderOutputName": "Edge2",
    "m_StageCapability": 3,
    "m_Value": {
        "x": 0.6000000238418579,
        "y": 1.0,
        "z": 1.0,
        "w": 1.0
    },
    "m_DefaultValue": {
        "x": 0.0,
        "y": 0.0,
        "z": 0.0,
        "w": 0.0
    }
}

{
    "m_SGVersion": 0,
    "m_Type": "UnityEditor.ShaderGraph.DynamicVectorMaterialSlot",
    "m_ObjectId": "255ded7babda598f8a8df4208528cf40",
    "m_Id": 1,
    "m_DisplayName": "Out",
    "m_SlotType": 1,
    "m_Hidden": false,
    "m_ShaderOutputName": "Out",
    "m_StageCapability": 3,
    "m_Value": {
        "x": 0.0,
        "y": 0.0,
        "z": 0.0,
        "w": 0.0
    },
    "m_DefaultValue": {
        "x": 0.0,
        "y": 0.0,
        "z": 0.0,
        "w": 0.0
    }
}

{
    "m_SGVersion": 0,
    "m_Type": "UnityEditor.ShaderGraph.Vector1MaterialSlot",
    "m_ObjectId": "270a1165143890859cf10969e005ebd6",
    "m_Id": 1,
    "m_DisplayName": "Out",
    "m_SlotType": 1,
    "m_Hidden": false,
    "m_ShaderOutputName": "Out",
    "m_StageCapability": 3,
    "m_Value": 0.0,
    "m_DefaultValue": 0.0,
    "m_Labels": [
        "X"
    ]
}

{
    "m_SGVersion": 0,
    "m_Type": "UnityEditor.ShaderGraph.Vector1MaterialSlot",
    "m_ObjectId": "27621cf9ce304f8cb64292adb329e657",
    "m_Id": 0,
    "m_DisplayName": "Seed",
    "m_SlotType": 1,
    "m_Hidden": false,
    "m_ShaderOutputName": "Out",
    "m_StageCapability": 3,
    "m_Value": 0.0,
    "m_DefaultValue": 0.0,
    "m_Labels": [
        "X"
    ]
}

{
    "m_SGVersion": 0,
    "m_Type": "UnityEditor.ShaderGraph.DynamicVectorMaterialSlot",
    "m_ObjectId": "29810b5f95088a839974c72219b79400",
    "m_Id": 0,
    "m_DisplayName": "A",
    "m_SlotType": 0,
    "m_Hidden": false,
    "m_ShaderOutputName": "A",
    "m_StageCapability": 3,
    "m_Value": {
        "x": 1.0,
        "y": 1.0,
        "z": 1.0,
        "w": 1.0
    },
    "m_DefaultValue": {
        "x": 0.0,
        "y": 0.0,
        "z": 0.0,
        "w": 0.0
    }
}

{
    "m_SGVersion": 0,
    "m_Type": "UnityEditor.ShaderGraph.DynamicValueMaterialSlot",
    "m_ObjectId": "2eb5ca0e965b778dad4570293c22ec47",
    "m_Id": 1,
    "m_DisplayName": "B",
    "m_SlotType": 0,
    "m_Hidden": false,
    "m_ShaderOutputName": "B",
    "m_StageCapability": 3,
    "m_Value": {
        "e00": 2.0,
        "e01": 2.0,
        "e02": 2.0,
        "e03": 2.0,
        "e10": 2.0,
        "e11": 2.0,
        "e12": 2.0,
        "e13": 2.0,
        "e20": 2.0,
        "e21": 2.0,
        "e22": 2.0,
        "e23": 2.0,
        "e30": 2.0,
        "e31": 2.0,
        "e32": 2.0,
        "e33": 2.0
    },
    "m_DefaultValue": {
        "e00": 1.0,
        "e01": 0.0,
        "e02": 0.0,
        "e03": 0.0,
        "e10": 0.0,
        "e11": 1.0,
        "e12": 0.0,
        "e13": 0.0,
        "e20": 0.0,
        "e21": 0.0,
        "e22": 1.0,
        "e23": 0.0,
        "e30": 0.0,
        "e31": 0.0,
        "e32": 0.0,
        "e33": 1.0
    }
}

{
    "m_SGVersion": 0,
    "m_Type": "UnityEditor.ShaderGraph.DynamicVectorMaterialSlot",
    "m_ObjectId": "322076c72d5fd383b176bfa76e4a76c1",
    "m_Id": 2,
    "m_DisplayName": "In",
    "m_SlotType": 0,
    "m_Hidden": false,
    "m_ShaderOutputName": "In",
    "m_StageCapability": 3,
    "m_Value": {
        "x": 0.6499999761581421,
        "y": 0.0,
        "z": 0.0,
        "w": 0.0
    },
    "m_DefaultValue": {
        "x": 0.0,
        "y": 0.0,
        "z": 0.0,
        "w": 0.0
    }
}

{
    "m_SGVersion": 0,
    "m_Type": "UnityEditor.ShaderGraph.DynamicVectorMaterialSlot",
    "m_ObjectId": "32b80b854bd7c18b88ec33da007c64a8",
    "m_Id": 0,
    "m_DisplayName": "In",
    "m_SlotType": 0,
    "m_Hidden": false,
    "m_ShaderOutputName": "In",
    "m_StageCapability": 3,
    "m_Value": {
        "x": 0.0,
        "y": 0.0,
        "z": 0.0,
        "w": 0.0
    },
    "m_DefaultValue": {
        "x": 0.0,
        "y": 0.0,
        "z": 0.0,
        "w": 0.0
    }
}

{
    "m_SGVersion": 0,
    "m_Type": "UnityEditor.ShaderGraph.TilingAndOffsetNode",
    "m_ObjectId": "33ebf501a454a486871fd6d7d91b5888",
    "m_Group": {
        "m_Id": ""
    },
    "m_Name": "Tiling And Offset",
    "m_DrawState": {
        "m_Expanded": true,
        "m_Position": {
            "serializedVersion": "2",
            "x": -3056.999755859375,
            "y": 233.99998474121095,
            "width": 207.99998474121095,
            "height": 326.0
        }
    },
    "m_Slots": [
        {
            "m_Id": "81d0a6d19b9e9c83950867126455a92f"
        },
        {
            "m_Id": "18449bcc1fdcbc84890b342d5af82cae"
        },
        {
            "m_Id": "370ab8150e6d9589938c8455e0e19b47"
        },
        {
            "m_Id": "baeeb1b3f96e2c8c950ca3a727be90da"
        }
    ],
    "synonyms": [
        "pan",
        "scale"
    ],
    "m_Precision": 0,
    "m_PreviewExpanded": true,
    "m_PreviewMode": 0,
    "m_CustomColors": {
        "m_SerializableColors": []
    }
}

{
    "m_SGVersion": 0,
    "m_Type": "UnityEditor.ShaderGraph.Vector2MaterialSlot",
    "m_ObjectId": "370ab8150e6d9589938c8455e0e19b47",
    "m_Id": 2,
    "m_DisplayName": "Offset",
    "m_SlotType": 0,
    "m_Hidden": false,
    "m_ShaderOutputName": "Offset",
    "m_StageCapability": 3,
    "m_Value": {
        "x": 0.0,
        "y": 0.0
    },
    "m_DefaultValue": {
        "x": 0.0,
        "y": 0.0
    },
    "m_Labels": [
        "X",
        "Y"
    ]
}

{
    "m_SGVersion": 0,
    "m_Type": "UnityEditor.ShaderGraph.DynamicVectorMaterialSlot",
    "m_ObjectId": "3ef03f0a1be48988be8a9545205b1ef3",
    "m_Id": 2,
    "m_DisplayName": "Out",
    "m_SlotType": 1,
    "m_Hidden": false,
    "m_ShaderOutputName": "Out",
    "m_StageCapability": 3,
    "m_Value": {
        "x": 0.0,
        "y": 0.0,
        "z": 0.0,
        "w": 0.0
    },
    "m_DefaultValue": {
        "x": 0.0,
        "y": 0.0,
        "z": 0.0,
        "w": 0.0
    }
}

{
    "m_SGVersion": 0,
    "m_Type": "UnityEditor.ShaderGraph.PropertyNode",
    "m_ObjectId": "432583befd4fbf8c89982283c76d43d5",
    "m_Group": {
        "m_Id": "592827ea8be748c3a17fc6a0e8bb11a6"
    },
    "m_Name": "Property",
    "m_DrawState": {
        "m_Expanded": true,
        "m_Position": {
            "serializedVersion": "2",
            "x": -2667.999755859375,
            "y": 46.99995803833008,
            "width": 97.99999237060547,
            "height": 34.0
        }
    },
    "m_Slots": [
        {
            "m_Id": "27621cf9ce304f8cb64292adb329e657"
        }
    ],
    "synonyms": [],
    "m_Precision": 0,
    "m_PreviewExpanded": true,
    "m_PreviewMode": 0,
    "m_CustomColors": {
        "m_SerializableColors": []
    },
    "m_Property": {
        "m_Id": "b4afff439635d285ab4e8ea4a01dfc8b"
    }
}

{
    "m_SGVersion": 0,
    "m_Type": "UnityEditor.ShaderGraph.DynamicVectorMaterialSlot",
    "m_ObjectId": "44a0f1adb6a7da81bb98bff0cc691e6b",
    "m_Id": 1,
    "m_DisplayName": "Out",
    "m_SlotType": 1,
    "m_Hidden": false,
    "m_ShaderOutputName": "Out",
    "m_StageCapability": 3,
    "m_Value": {
        "x": 0.0,
        "y": 0.0,
        "z": 0.0,
        "w": 0.0
    },
    "m_DefaultValue": {
        "x": 0.0,
        "y": 0.0,
        "z": 0.0,
        "w": 0.0
    }
}

{
    "m_SGVersion": 0,
    "m_Type": "UnityEditor.ShaderGraph.LengthNode",
    "m_ObjectId": "46c2da05de63c38daa63859a93c5faec",
    "m_Group": {
        "m_Id": "e75d0c327d6d4a57a863729a9543545b"
    },
    "m_Name": "Length",
    "m_DrawState": {
        "m_Expanded": true,
        "m_Position": {
            "serializedVersion": "2",
            "x": -1255.9998779296875,
            "y": 36.00005340576172,
            "width": 124.0,
            "height": 94.0
        }
    },
    "m_Slots": [
        {
            "m_Id": "d06feefbd0323689be114f13dee21863"
        },
        {
            "m_Id": "08c99a154240fb8b8341d73c6187e7c5"
        }
    ],
    "synonyms": [
        "measure"
    ],
    "m_Precision": 0,
    "m_PreviewExpanded": false,
    "m_PreviewMode": 0,
    "m_CustomColors": {
        "m_SerializableColors": []
    }
}

{
    "m_SGVersion": 0,
    "m_Type": "UnityEditor.ShaderGraph.SubGraphOutputNode",
    "m_ObjectId": "50530630de1f6e8daed3fc1a1e395e01",
    "m_Group": {
        "m_Id": ""
    },
    "m_Name": "SubGraphOutputs",
    "m_DrawState": {
        "m_Expanded": true,
        "m_Position": {
            "serializedVersion": "2",
            "x": 45.00004959106445,
            "y": 2.000009059906006,
            "width": 156.99998474121095,
            "height": 77.0
        }
    },
    "m_Slots": [
        {
            "m_Id": "10d27526d164ee8ba694817df713db11"
        }
    ],
    "synonyms": [],
    "m_Precision": 0,
    "m_PreviewExpanded": true,
    "m_PreviewMode": 0,
    "m_CustomColors": {
        "m_SerializableColors": []
    },
    "IsFirstSlotValid": true
}

{
    "m_SGVersion": 0,
    "m_Type": "UnityEditor.ShaderGraph.DynamicVectorMaterialSlot",
    "m_ObjectId": "576161d300ccfd87ab4f13d3843fbc99",
    "m_Id": 0,
    "m_DisplayName": "In",
    "m_SlotType": 0,
    "m_Hidden": false,
    "m_ShaderOutputName": "In",
    "m_StageCapability": 3,
    "m_Value": {
        "x": 0.0,
        "y": 0.0,
        "z": 0.0,
        "w": 0.0
    },
    "m_DefaultValue": {
        "x": 0.0,
        "y": 0.0,
        "z": 0.0,
        "w": 0.0
    }
}

{
    "m_SGVersion": 0,
    "m_Type": "UnityEditor.ShaderGraph.DynamicVectorMaterialSlot",
    "m_ObjectId": "59179290ec9d1e818c8cdc03ccc13830",
    "m_Id": 0,
    "m_DisplayName": "A",
    "m_SlotType": 0,
    "m_Hidden": false,
    "m_ShaderOutputName": "A",
    "m_StageCapability": 3,
    "m_Value": {
        "x": 0.0,
        "y": 0.0,
        "z": 0.0,
        "w": 0.0
    },
    "m_DefaultValue": {
        "x": 0.0,
        "y": 0.0,
        "z": 0.0,
        "w": 0.0
    }
}

{
    "m_SGVersion": 0,
    "m_Type": "UnityEditor.ShaderGraph.GroupData",
    "m_ObjectId": "592827ea8be748c3a17fc6a0e8bb11a6",
    "m_Title": "Randomized rotation mask",
    "m_Position": {
        "x": -2845.999755859375,
        "y": -115.0
    }
}

{
    "m_SGVersion": 0,
    "m_Type": "UnityEditor.ShaderGraph.DynamicVectorMaterialSlot",
    "m_ObjectId": "59312fe6e6f82f84ae7b21b2c09dd11a",
    "m_Id": 0,
    "m_DisplayName": "In",
    "m_SlotType": 0,
    "m_Hidden": false,
    "m_ShaderOutputName": "In",
    "m_StageCapability": 3,
    "m_Value": {
        "x": 0.0,
        "y": 0.0,
        "z": 0.0,
        "w": 0.0
    },
    "m_DefaultValue": {
        "x": 0.0,
        "y": 0.0,
        "z": 0.0,
        "w": 0.0
    }
}

{
    "m_SGVersion": 0,
    "m_Type": "UnityEditor.ShaderGraph.MinimumNode",
    "m_ObjectId": "593fbcfcd11cc08dad37d8d9151101f3",
    "m_Group": {
        "m_Id": "e75d0c327d6d4a57a863729a9543545b"
    },
    "m_Name": "Minimum",
    "m_DrawState": {
        "m_Expanded": true,
        "m_Position": {
            "serializedVersion": "2",
            "x": -1029.9998779296875,
            "y": 74.00005340576172,
            "width": 208.0,
            "height": 301.9999694824219
        }
    },
    "m_Slots": [
        {
            "m_Id": "59179290ec9d1e818c8cdc03ccc13830"
        },
        {
            "m_Id": "f3e278ae6431038a875e79963ba50d5a"
        },
        {
            "m_Id": "3ef03f0a1be48988be8a9545205b1ef3"
        }
    ],
    "synonyms": [],
    "m_Precision": 0,
    "m_PreviewExpanded": true,
    "m_PreviewMode": 0,
    "m_CustomColors": {
        "m_SerializableColors": []
    }
}

{
    "m_SGVersion": 0,
    "m_Type": "UnityEditor.ShaderGraph.Vector2MaterialSlot",
    "m_ObjectId": "5c0fcf5d707588848ee41a6805030b48",
    "m_Id": 0,
    "m_DisplayName": "Out",
    "m_SlotType": 1,
    "m_Hidden": false,
    "m_ShaderOutputName": "Out",
    "m_StageCapability": 3,
    "m_Value": {
        "x": 0.0,
        "y": 0.0
    },
    "m_DefaultValue": {
        "x": 0.0,
        "y": 0.0
    },
    "m_Labels": [
        "X",
        "Y"
    ]
}

{
    "m_SGVersion": 0,
    "m_Type": "UnityEditor.ShaderGraph.DynamicValueMaterialSlot",
    "m_ObjectId": "683a71b9a66e898b8eabde03267107fd",
    "m_Id": 2,
    "m_DisplayName": "Out",
    "m_SlotType": 1,
    "m_Hidden": false,
    "m_ShaderOutputName": "Out",
    "m_StageCapability": 3,
    "m_Value": {
        "e00": 0.0,
        "e01": 0.0,
        "e02": 0.0,
        "e03": 0.0,
        "e10": 0.0,
        "e11": 0.0,
        "e12": 0.0,
        "e13": 0.0,
        "e20": 0.0,
        "e21": 0.0,
        "e22": 0.0,
        "e23": 0.0,
        "e30": 0.0,
        "e31": 0.0,
        "e32": 0.0,
        "e33": 0.0
    },
    "m_DefaultValue": {
        "e00": 1.0,
        "e01": 0.0,
        "e02": 0.0,
        "e03": 0.0,
        "e10": 0.0,
        "e11": 1.0,
        "e12": 0.0,
        "e13": 0.0,
        "e20": 0.0,
        "e21": 0.0,
        "e22": 1.0,
        "e23": 0.0,
        "e30": 0.0,
        "e31": 0.0,
        "e32": 0.0,
        "e33": 1.0
    }
}

{
    "m_SGVersion": 0,
    "m_Type": "UnityEditor.ShaderGraph.DynamicVectorMaterialSlot",
    "m_ObjectId": "7292119b183a39848b8cabdda47bf953",
    "m_Id": 3,
    "m_DisplayName": "Out",
    "m_SlotType": 1,
    "m_Hidden": false,
    "m_ShaderOutputName": "Out",
    "m_StageCapability": 3,
    "m_Value": {
        "x": 0.0,
        "y": 0.0,
        "z": 0.0,
        "w": 0.0
    },
    "m_DefaultValue": {
        "x": 0.0,
        "y": 0.0,
        "z": 0.0,
        "w": 0.0
    }
}

{
    "m_SGVersion": 0,
    "m_Type": "UnityEditor.ShaderGraph.SignNode",
    "m_ObjectId": "731f02f9348a1084b28e61d319a8ddc6",
    "m_Group": {
        "m_Id": "592827ea8be748c3a17fc6a0e8bb11a6"
    },
    "m_Name": "Sign",
    "m_DrawState": {
        "m_Expanded": true,
        "m_Position": {
            "serializedVersion": "2",
            "x": -2288.999755859375,
            "y": -25.00000762939453,
            "width": 207.99998474121095,
            "height": 278.0
        }
    },
    "m_Slots": [
        {
            "m_Id": "576161d300ccfd87ab4f13d3843fbc99"
        },
        {
            "m_Id": "b12cc9941fb0b78c98bd01fe6b60d3ee"
        }
    ],
    "synonyms": [],
    "m_Precision": 0,
    "m_PreviewExpanded": true,
    "m_PreviewMode": 0,
    "m_CustomColors": {
        "m_SerializableColors": []
    }
}

{
    "m_SGVersion": 0,
    "m_Type": "UnityEditor.ShaderGraph.CeilingNode",
    "m_ObjectId": "74477c623383c78caf562638c8643af9",
    "m_Group": {
        "m_Id": "592827ea8be748c3a17fc6a0e8bb11a6"
    },
    "m_Name": "Ceiling",
    "m_DrawState": {
        "m_Expanded": true,
        "m_Position": {
            "serializedVersion": "2",
            "x": -2820.999755859375,
            "y": -52.00002670288086,
            "width": 124.0,
            "height": 94.0
        }
    },
    "m_Slots": [
        {
            "m_Id": "f813a7a46f2ac98f965592691bcd7414"
        },
        {
            "m_Id": "e0b7a717442aca8a8795a79b44801ad1"
        }
    ],
    "synonyms": [
        "up"
    ],
    "m_Precision": 0,
    "m_PreviewExpanded": false,
    "m_PreviewMode": 0,
    "m_CustomColors": {
        "m_SerializableColors": []
    }
}

{
    "m_SGVersion": 0,
    "m_Type": "UnityEditor.ShaderGraph.DynamicValueMaterialSlot",
    "m_ObjectId": "7bf6b4677cacfe8395d341987a0613b5",
    "m_Id": 1,
    "m_DisplayName": "B",
    "m_SlotType": 0,
    "m_Hidden": false,
    "m_ShaderOutputName": "B",
    "m_StageCapability": 3,
    "m_Value": {
        "e00": 168.0,
        "e01": 2.0,
        "e02": 2.0,
        "e03": 2.0,
        "e10": 2.0,
        "e11": 2.0,
        "e12": 2.0,
        "e13": 2.0,
        "e20": 2.0,
        "e21": 2.0,
        "e22": 2.0,
        "e23": 2.0,
        "e30": 2.0,
        "e31": 2.0,
        "e32": 2.0,
        "e33": 2.0
    },
    "m_DefaultValue": {
        "e00": 1.0,
        "e01": 0.0,
        "e02": 0.0,
        "e03": 0.0,
        "e10": 0.0,
        "e11": 1.0,
        "e12": 0.0,
        "e13": 0.0,
        "e20": 0.0,
        "e21": 0.0,
        "e22": 1.0,
        "e23": 0.0,
        "e30": 0.0,
        "e31": 0.0,
        "e32": 0.0,
        "e33": 1.0
    }
}

{
    "m_SGVersion": 0,
    "m_Type": "UnityEditor.ShaderGraph.DynamicValueMaterialSlot",
    "m_ObjectId": "7c4f597804aa858eb5e957ae6ccb2033",
    "m_Id": 0,
    "m_DisplayName": "A",
    "m_SlotType": 0,
    "m_Hidden": false,
    "m_ShaderOutputName": "A",
    "m_StageCapability": 3,
    "m_Value": {
        "e00": 0.0,
        "e01": 0.0,
        "e02": 0.0,
        "e03": 0.0,
        "e10": 0.0,
        "e11": 0.0,
        "e12": 0.0,
        "e13": 0.0,
        "e20": 0.0,
        "e21": 0.0,
        "e22": 0.0,
        "e23": 0.0,
        "e30": 0.0,
        "e31": 0.0,
        "e32": 0.0,
        "e33": 0.0
    },
    "m_DefaultValue": {
        "e00": 1.0,
        "e01": 0.0,
        "e02": 0.0,
        "e03": 0.0,
        "e10": 0.0,
        "e11": 1.0,
        "e12": 0.0,
        "e13": 0.0,
        "e20": 0.0,
        "e21": 0.0,
        "e22": 1.0,
        "e23": 0.0,
        "e30": 0.0,
        "e31": 0.0,
        "e32": 0.0,
        "e33": 1.0
    }
}

{
    "m_SGVersion": 0,
    "m_Type": "UnityEditor.ShaderGraph.DynamicVectorMaterialSlot",
    "m_ObjectId": "7ea9c9bf9bf62a879c1fa9c2ad096c86",
    "m_Id": 3,
    "m_DisplayName": "Out",
    "m_SlotType": 1,
    "m_Hidden": false,
    "m_ShaderOutputName": "Out",
    "m_StageCapability": 3,
    "m_Value": {
        "x": 0.0,
        "y": 0.0,
        "z": 0.0,
        "w": 0.0
    },
    "m_DefaultValue": {
        "x": 0.0,
        "y": 0.0,
        "z": 0.0,
        "w": 0.0
    }
}

{
    "m_SGVersion": 0,
    "m_Type": "UnityEditor.ShaderGraph.Vector1MaterialSlot",
    "m_ObjectId": "7f7a558e5c1d268a9a14325db08b021e",
    "m_Id": 1,
    "m_DisplayName": "R",
    "m_SlotType": 1,
    "m_Hidden": false,
    "m_ShaderOutputName": "R",
    "m_StageCapability": 3,
    "m_Value": 0.0,
    "m_DefaultValue": 0.0,
    "m_Labels": [
        "X"
    ]
}

{
    "m_SGVersion": 0,
    "m_Type": "UnityEditor.ShaderGraph.CosineNode",
    "m_ObjectId": "818804a0b30d9080a6c3eb1a4ad5f67f",
    "m_Group": {
        "m_Id": "592827ea8be748c3a17fc6a0e8bb11a6"
    },
    "m_Name": "Cosine",
    "m_DrawState": {
        "m_Expanded": true,
        "m_Position": {
            "serializedVersion": "2",
            "x": -2416.999755859375,
            "y": -25.00000762939453,
            "width": 124.0,
            "height": 94.0
        }
    },
    "m_Slots": [
        {
            "m_Id": "59312fe6e6f82f84ae7b21b2c09dd11a"
        },
        {
            "m_Id": "255ded7babda598f8a8df4208528cf40"
        }
    ],
    "synonyms": [],
    "m_Precision": 0,
    "m_PreviewExpanded": false,
    "m_PreviewMode": 0,
    "m_CustomColors": {
        "m_SerializableColors": []
    }
}

{
    "m_SGVersion": 0,
    "m_Type": "UnityEditor.ShaderGraph.UVMaterialSlot",
    "m_ObjectId": "81d0a6d19b9e9c83950867126455a92f",
    "m_Id": 0,
    "m_DisplayName": "UV",
    "m_SlotType": 0,
    "m_Hidden": false,
    "m_ShaderOutputName": "UV",
    "m_StageCapability": 3,
    "m_Value": {
        "x": 0.0,
        "y": 0.0
    },
    "m_DefaultValue": {
        "x": 0.0,
        "y": 0.0
    },
    "m_Labels": [
        "X",
        "Y"
    ],
    "m_Channel": 0
}

{
    "m_SGVersion": 0,
    "m_Type": "UnityEditor.ShaderGraph.DynamicVectorMaterialSlot",
    "m_ObjectId": "8205137dc304d38eb59af047f15352b1",
    "m_Id": 0,
    "m_DisplayName": "In",
    "m_SlotType": 0,
    "m_Hidden": false,
    "m_ShaderOutputName": "In",
    "m_StageCapability": 3,
    "m_Value": {
        "x": 0.0,
        "y": 0.0,
        "z": 0.0,
        "w": 0.0
    },
    "m_DefaultValue": {
        "x": 0.0,
        "y": 0.0,
        "z": 0.0,
        "w": 0.0
    }
}

{
    "m_SGVersion": 0,
    "m_Type": "UnityEditor.ShaderGraph.SmoothstepNode",
    "m_ObjectId": "85806da33565bd85b179df783dabec24",
    "m_Group": {
        "m_Id": "e75d0c327d6d4a57a863729a9543545b"
    },
    "m_Name": "Smoothstep",
    "m_DrawState": {
        "m_Expanded": true,
        "m_Position": {
            "serializedVersion": "2",
            "x": -380.99993896484377,
            "y": 2.000009059906006,
            "width": 144.99998474121095,
            "height": 142.0
        }
    },
    "m_Slots": [
        {
            "m_Id": "8832218b82e0db89a720b9959cbc76b2"
        },
        {
            "m_Id": "2546624bc174f08cb877ab4dca60db29"
        },
        {
            "m_Id": "322076c72d5fd383b176bfa76e4a76c1"
        },
        {
            "m_Id": "7292119b183a39848b8cabdda47bf953"
        }
    ],
    "synonyms": [
        "curve"
    ],
    "m_Precision": 0,
    "m_PreviewExpanded": false,
    "m_PreviewMode": 0,
    "m_CustomColors": {
        "m_SerializableColors": []
    }
}

{
    "m_SGVersion": 0,
    "m_Type": "UnityEditor.ShaderGraph.SmoothstepNode",
    "m_ObjectId": "85c9e4ba7f27ff83b26532c3ca1cea09",
    "m_Group": {
        "m_Id": "e75d0c327d6d4a57a863729a9543545b"
    },
    "m_Name": "Smoothstep",
    "m_DrawState": {
        "m_Expanded": true,
        "m_Position": {
            "serializedVersion": "2",
            "x": -378.9998474121094,
            "y": 144.00001525878907,
            "width": 144.99998474121095,
            "height": 142.0
        }
    },
    "m_Slots": [
        {
            "m_Id": "0a076c84cc5ff98d815a8f6c2149666a"
        },
        {
            "m_Id": "9b2e98abace1ae8e9c4fa9b3508ce661"
        },
        {
            "m_Id": "cb3c39ce59ce94858cae73ac89713092"
        },
        {
            "m_Id": "7ea9c9bf9bf62a879c1fa9c2ad096c86"
        }
    ],
    "synonyms": [
        "curve"
    ],
    "m_Precision": 0,
    "m_PreviewExpanded": false,
    "m_PreviewMode": 0,
    "m_CustomColors": {
        "m_SerializableColors": []
    }
}

{
    "m_SGVersion": 0,
    "m_Type": "UnityEditor.ShaderGraph.Vector1MaterialSlot",
    "m_ObjectId": "85db1fd6d82f0184a334d6120e98868b",
    "m_Id": 1,
    "m_DisplayName": "X",
    "m_SlotType": 0,
    "m_Hidden": false,
    "m_ShaderOutputName": "X",
    "m_StageCapability": 3,
    "m_Value": 0.0,
    "m_DefaultValue": 0.0,
    "m_Labels": [
        "X"
    ]
}

{
    "m_SGVersion": 0,
    "m_Type": "UnityEditor.ShaderGraph.MultiplyNode",
    "m_ObjectId": "86f3fb89ccf8698295790be1e1fe8b81",
    "m_Group": {
        "m_Id": "cf9814f72b194885bdb057f58309cb49"
    },
    "m_Name": "Multiply",
    "m_DrawState": {
        "m_Expanded": true,
        "m_Position": {
            "serializedVersion": "2",
            "x": -1890.9998779296875,
            "y": 147.0,
            "width": 121.99999237060547,
            "height": 118.0
        }
    },
    "m_Slots": [
        {
            "m_Id": "7c4f597804aa858eb5e957ae6ccb2033"
        },
        {
            "m_Id": "2eb5ca0e965b778dad4570293c22ec47"
        },
        {
            "m_Id": "b6e21de512859d8abca184bdfc1e4fbb"
        }
    ],
    "synonyms": [
        "multiplication",
        "times",
        "x"
    ],
    "m_Precision": 0,
    "m_PreviewExpanded": false,
    "m_PreviewMode": 0,
    "m_CustomColors": {
        "m_SerializableColors": []
    }
}

{
    "m_SGVersion": 0,
    "m_Type": "UnityEditor.ShaderGraph.DynamicVectorMaterialSlot",
    "m_ObjectId": "8832218b82e0db89a720b9959cbc76b2",
    "m_Id": 0,
    "m_DisplayName": "Edge1",
    "m_SlotType": 0,
    "m_Hidden": false,
    "m_ShaderOutputName": "Edge1",
    "m_StageCapability": 3,
    "m_Value": {
        "x": 0.800000011920929,
        "y": 0.0,
        "z": 0.0,
        "w": 0.0
    },
    "m_DefaultValue": {
        "x": 0.0,
        "y": 0.0,
        "z": 0.0,
        "w": 0.0
    }
}

{
    "m_SGVersion": 0,
    "m_Type": "UnityEditor.ShaderGraph.Vector1MaterialSlot",
    "m_ObjectId": "8e1169a5ff009489a572373b27f69642",
    "m_Id": 2,
    "m_DisplayName": "Y",
    "m_SlotType": 0,
    "m_Hidden": false,
    "m_ShaderOutputName": "Y",
    "m_StageCapability": 3,
    "m_Value": 0.0,
    "m_DefaultValue": 0.0,
    "m_Labels": [
        "Y"
    ]
}

{
    "m_SGVersion": 0,
    "m_Type": "UnityEditor.ShaderGraph.DynamicVectorMaterialSlot",
    "m_ObjectId": "8f9a89f9943fa38eaee35d49a7e4bab0",
    "m_Id": 0,
    "m_DisplayName": "In",
    "m_SlotType": 0,
    "m_Hidden": false,
    "m_ShaderOutputName": "In",
    "m_StageCapability": 3,
    "m_Value": {
        "x": 0.0,
        "y": 0.0,
        "z": 0.0,
        "w": 0.0
    },
    "m_DefaultValue": {
        "x": 0.0,
        "y": 0.0,
        "z": 0.0,
        "w": 0.0
    }
}

{
    "m_SGVersion": 0,
    "m_Type": "UnityEditor.ShaderGraph.DynamicValueMaterialSlot",
    "m_ObjectId": "92c60f9b94f15685b7d362a3ce776933",
    "m_Id": 0,
    "m_DisplayName": "A",
    "m_SlotType": 0,
    "m_Hidden": false,
    "m_ShaderOutputName": "A",
    "m_StageCapability": 3,
    "m_Value": {
        "e00": 0.0,
        "e01": 0.0,
        "e02": 0.0,
        "e03": 0.0,
        "e10": 0.0,
        "e11": 0.0,
        "e12": 0.0,
        "e13": 0.0,
        "e20": 0.0,
        "e21": 0.0,
        "e22": 0.0,
        "e23": 0.0,
        "e30": 0.0,
        "e31": 0.0,
        "e32": 0.0,
        "e33": 0.0
    },
    "m_DefaultValue": {
        "e00": 1.0,
        "e01": 0.0,
        "e02": 0.0,
        "e03": 0.0,
        "e10": 0.0,
        "e11": 1.0,
        "e12": 0.0,
        "e13": 0.0,
        "e20": 0.0,
        "e21": 0.0,
        "e22": 1.0,
        "e23": 0.0,
        "e30": 0.0,
        "e31": 0.0,
        "e32": 0.0,
        "e33": 1.0
    }
}

{
    "m_SGVersion": 0,
    "m_Type": "UnityEditor.ShaderGraph.LengthNode",
    "m_ObjectId": "956ccab6f0af248e97ec5c9860138951",
    "m_Group": {
        "m_Id": "592827ea8be748c3a17fc6a0e8bb11a6"
    },
    "m_Name": "Length",
    "m_DrawState": {
        "m_Expanded": true,
        "m_Position": {
            "serializedVersion": "2",
            "x": -2696.999755859375,
            "y": -52.00002670288086,
            "width": 124.0,
            "height": 94.0
        }
    },
    "m_Slots": [
        {
            "m_Id": "a98a4a6cdfa3168e846acf82685b40d0"
        },
        {
            "m_Id": "270a1165143890859cf10969e005ebd6"
        }
    ],
    "synonyms": [
        "measure"
    ],
    "m_Precision": 0,
    "m_PreviewExpanded": false,
    "m_PreviewMode": 0,
    "m_CustomColors": {
        "m_SerializableColors": []
    }
}

{
    "m_SGVersion": 0,
    "m_Type": "UnityEditor.ShaderGraph.DynamicVectorMaterialSlot",
    "m_ObjectId": "959df1c6a79d1d87bf689cfd0382b07c",
    "m_Id": 1,
    "m_DisplayName": "Out",
    "m_SlotType": 1,
    "m_Hidden": false,
    "m_ShaderOutputName": "Out",
    "m_StageCapability": 3,
    "m_Value": {
        "x": 0.0,
        "y": 0.0,
        "z": 0.0,
        "w": 0.0
    },
    "m_DefaultValue": {
        "x": 0.0,
        "y": 0.0,
        "z": 0.0,
        "w": 0.0
    }
}

{
    "m_SGVersion": 0,
    "m_Type": "UnityEditor.ShaderGraph.DynamicValueMaterialSlot",
    "m_ObjectId": "99a092e74d22a78ab0b6ce80750a9dfb",
    "m_Id": 0,
    "m_DisplayName": "A",
    "m_SlotType": 0,
    "m_Hidden": false,
    "m_ShaderOutputName": "A",
    "m_StageCapability": 3,
    "m_Value": {
        "e00": 0.0,
        "e01": 0.0,
        "e02": 0.0,
        "e03": 0.0,
        "e10": 0.0,
        "e11": 0.0,
        "e12": 0.0,
        "e13": 0.0,
        "e20": 0.0,
        "e21": 0.0,
        "e22": 0.0,
        "e23": 0.0,
        "e30": 0.0,
        "e31": 0.0,
        "e32": 0.0,
        "e33": 0.0
    },
    "m_DefaultValue": {
        "e00": 1.0,
        "e01": 0.0,
        "e02": 0.0,
        "e03": 0.0,
        "e10": 0.0,
        "e11": 1.0,
        "e12": 0.0,
        "e13": 0.0,
        "e20": 0.0,
        "e21": 0.0,
        "e22": 1.0,
        "e23": 0.0,
        "e30": 0.0,
        "e31": 0.0,
        "e32": 0.0,
        "e33": 1.0
    }
}

{
    "m_SGVersion": 0,
    "m_Type": "UnityEditor.ShaderGraph.LengthNode",
    "m_ObjectId": "99b197592589a98d99d00d1f540669d8",
    "m_Group": {
        "m_Id": "e75d0c327d6d4a57a863729a9543545b"
    },
    "m_Name": "Length",
    "m_DrawState": {
        "m_Expanded": true,
        "m_Position": {
            "serializedVersion": "2",
            "x": -1188.9998779296875,
            "y": 135.00006103515626,
            "width": 124.0,
            "height": 94.0
        }
    },
    "m_Slots": [
        {
            "m_Id": "8f9a89f9943fa38eaee35d49a7e4bab0"
        },
        {
            "m_Id": "a41492c8361d0e84821d84721f892ab9"
        }
    ],
    "synonyms": [
        "measure"
    ],
    "m_Precision": 0,
    "m_PreviewExpanded": false,
    "m_PreviewMode": 0,
    "m_CustomColors": {
        "m_SerializableColors": []
    }
}

{
    "m_SGVersion": 0,
    "m_Type": "UnityEditor.ShaderGraph.DynamicVectorMaterialSlot",
    "m_ObjectId": "9b2e98abace1ae8e9c4fa9b3508ce661",
    "m_Id": 1,
    "m_DisplayName": "Edge2",
    "m_SlotType": 0,
    "m_Hidden": false,
    "m_ShaderOutputName": "Edge2",
    "m_StageCapability": 3,
    "m_Value": {
        "x": 0.20000000298023225,
        "y": 1.0,
        "z": 1.0,
        "w": 1.0
    },
    "m_DefaultValue": {
        "x": 0.0,
        "y": 0.0,
        "z": 0.0,
        "w": 0.0
    }
}

{
    "m_SGVersion": 0,
    "m_Type": "UnityEditor.ShaderGraph.Vector1MaterialSlot",
    "m_ObjectId": "a41492c8361d0e84821d84721f892ab9",
    "m_Id": 1,
    "m_DisplayName": "Out",
    "m_SlotType": 1,
    "m_Hidden": false,
    "m_ShaderOutputName": "Out",
    "m_StageCapability": 3,
    "m_Value": 0.0,
    "m_DefaultValue": 0.0,
    "m_Labels": [
        "X"
    ]
}

{
    "m_SGVersion": 0,
    "m_Type": "UnityEditor.ShaderGraph.DynamicVectorMaterialSlot",
    "m_ObjectId": "a687a1b450d79283865272ede107a4b7",
    "m_Id": 0,
    "m_DisplayName": "In",
    "m_SlotType": 0,
    "m_Hidden": false,
    "m_ShaderOutputName": "In",
    "m_StageCapability": 3,
    "m_Value": {
        "x": 0.0,
        "y": 0.0,
        "z": 0.0,
        "w": 0.0
    },
    "m_DefaultValue": {
        "x": 0.0,
        "y": 0.0,
        "z": 0.0,
        "w": 0.0
    }
}

{
    "m_SGVersion": 0,
    "m_Type": "UnityEditor.ShaderGraph.DynamicVectorMaterialSlot",
    "m_ObjectId": "a896711270d5fe8fb1f0a81a85888bef",
    "m_Id": 1,
    "m_DisplayName": "Out",
    "m_SlotType": 1,
    "m_Hidden": false,
    "m_ShaderOutputName": "Out",
    "m_StageCapability": 3,
    "m_Value": {
        "x": 0.0,
        "y": 0.0,
        "z": 0.0,
        "w": 0.0
    },
    "m_DefaultValue": {
        "x": 0.0,
        "y": 0.0,
        "z": 0.0,
        "w": 0.0
    }
}

{
    "m_SGVersion": 0,
    "m_Type": "UnityEditor.ShaderGraph.DynamicVectorMaterialSlot",
    "m_ObjectId": "a98a4a6cdfa3168e846acf82685b40d0",
    "m_Id": 0,
    "m_DisplayName": "In",
    "m_SlotType": 0,
    "m_Hidden": false,
    "m_ShaderOutputName": "In",
    "m_StageCapability": 3,
    "m_Value": {
        "x": 0.0,
        "y": 0.0,
        "z": 0.0,
        "w": 0.0
    },
    "m_DefaultValue": {
        "x": 0.0,
        "y": 0.0,
        "z": 0.0,
        "w": 0.0
    }
}

{
    "m_SGVersion": 0,
    "m_Type": "UnityEditor.ShaderGraph.CategoryData",
    "m_ObjectId": "acb8ae152d234c1fa0ecfa6964c0e626",
    "m_Name": "",
    "m_ChildObjectList": [
        {
            "m_Id": "c11746b13fc7648a9f750eaacf563c17"
        },
        {
            "m_Id": "b4afff439635d285ab4e8ea4a01dfc8b"
        },
        {
            "m_Id": "c1a1890a7e1e1d8bb89086e2d88753df"
        }
    ]
}

{
    "m_SGVersion": 0,
    "m_Type": "UnityEditor.ShaderGraph.SplitNode",
    "m_ObjectId": "accd05460635048d923d30f91d7775ec",
    "m_Group": {
        "m_Id": "cf9814f72b194885bdb057f58309cb49"
    },
    "m_Name": "Split",
    "m_DrawState": {
        "m_Expanded": true,
        "m_Position": {
            "serializedVersion": "2",
            "x": -2027.9998779296875,
            "y": 235.9999542236328,
            "width": 114.0,
            "height": 149.0
        }
    },
    "m_Slots": [
        {
            "m_Id": "a687a1b450d79283865272ede107a4b7"
        },
        {
            "m_Id": "7f7a558e5c1d268a9a14325db08b021e"
        },
        {
            "m_Id": "b70bf87fd895d585b99b753525cd0334"
        },
        {
            "m_Id": "d508c02e83b28f81b13db5d32b6bc8c1"
        },
        {
            "m_Id": "d28abbd4c6d65f8997b6d9ebe7ec2401"
        }
    ],
    "synonyms": [
        "separate"
    ],
    "m_Precision": 0,
    "m_PreviewExpanded": true,
    "m_PreviewMode": 0,
    "m_CustomColors": {
        "m_SerializableColors": []
    }
}

{
    "m_SGVersion": 0,
    "m_Type": "UnityEditor.ShaderGraph.DynamicVectorMaterialSlot",
    "m_ObjectId": "b12cc9941fb0b78c98bd01fe6b60d3ee",
    "m_Id": 1,
    "m_DisplayName": "Out",
    "m_SlotType": 1,
    "m_Hidden": false,
    "m_ShaderOutputName": "Out",
    "m_StageCapability": 3,
    "m_Value": {
        "x": 0.0,
        "y": 0.0,
        "z": 0.0,
        "w": 0.0
    },
    "m_DefaultValue": {
        "x": 0.0,
        "y": 0.0,
        "z": 0.0,
        "w": 0.0
    }
}

{
    "m_SGVersion": 0,
    "m_Type": "UnityEditor.ShaderGraph.SubtractNode",
    "m_ObjectId": "b29f4fe31f6bfd8d9cceb61faf5dab52",
    "m_Group": {
        "m_Id": "e75d0c327d6d4a57a863729a9543545b"
    },
    "m_Name": "Subtract",
    "m_DrawState": {
        "m_Expanded": true,
        "m_Position": {
            "serializedVersion": "2",
            "x": -208.99996948242188,
            "y": 3.000051259994507,
            "width": 208.0,
            "height": 301.9999694824219
        }
    },
    "m_Slots": [
        {
            "m_Id": "29810b5f95088a839974c72219b79400"
        },
        {
            "m_Id": "f43654f72e6ef688aa5daa40982d83b0"
        },
        {
            "m_Id": "f123b605de230d8aa3592da63b9c3c13"
        }
    ],
    "synonyms": [
        "subtraction",
        "remove",
        "minus",
        "take away"
    ],
    "m_Precision": 0,
    "m_PreviewExpanded": true,
    "m_PreviewMode": 0,
    "m_CustomColors": {
        "m_SerializableColors": []
    }
}

{
    "m_SGVersion": 0,
    "m_Type": "UnityEditor.ShaderGraph.DynamicValueMaterialSlot",
    "m_ObjectId": "b316138aed111b878901d8483ed532be",
    "m_Id": 1,
    "m_DisplayName": "B",
    "m_SlotType": 0,
    "m_Hidden": false,
    "m_ShaderOutputName": "B",
    "m_StageCapability": 3,
    "m_Value": {
        "e00": 4.0,
        "e01": 2.0,
        "e02": 2.0,
        "e03": 2.0,
        "e10": 2.0,
        "e11": 2.0,
        "e12": 2.0,
        "e13": 2.0,
        "e20": 2.0,
        "e21": 2.0,
        "e22": 2.0,
        "e23": 2.0,
        "e30": 2.0,
        "e31": 2.0,
        "e32": 2.0,
        "e33": 2.0
    },
    "m_DefaultValue": {
        "e00": 1.0,
        "e01": 0.0,
        "e02": 0.0,
        "e03": 0.0,
        "e10": 0.0,
        "e11": 1.0,
        "e12": 0.0,
        "e13": 0.0,
        "e20": 0.0,
        "e21": 0.0,
        "e22": 1.0,
        "e23": 0.0,
        "e30": 0.0,
        "e31": 0.0,
        "e32": 0.0,
        "e33": 1.0
    }
}

{
    "m_SGVersion": 0,
    "m_Type": "UnityEditor.ShaderGraph.MultiplyNode",
    "m_ObjectId": "b40b1ee72c7eb28eb0eaee91164c032b",
    "m_Group": {
        "m_Id": "e75d0c327d6d4a57a863729a9543545b"
    },
    "m_Name": "Multiply",
    "m_DrawState": {
        "m_Expanded": true,
        "m_Position": {
            "serializedVersion": "2",
            "x": -799.9998779296875,
            "y": 50.0,
            "width": 122.0,
            "height": 118.0
        }
    },
    "m_Slots": [
        {
            "m_Id": "99a092e74d22a78ab0b6ce80750a9dfb"
        },
        {
            "m_Id": "b316138aed111b878901d8483ed532be"
        },
        {
            "m_Id": "683a71b9a66e898b8eabde03267107fd"
        }
    ],
    "synonyms": [
        "multiplication",
        "times",
        "x"
    ],
    "m_Precision": 0,
    "m_PreviewExpanded": false,
    "m_PreviewMode": 0,
    "m_CustomColors": {
        "m_SerializableColors": []
    }
}

{
    "m_SGVersion": 1,
    "m_Type": "UnityEditor.ShaderGraph.Internal.Vector1ShaderProperty",
    "m_ObjectId": "b4afff439635d285ab4e8ea4a01dfc8b",
    "m_Guid": {
        "m_GuidSerialized": "2af0d5fc-7588-402c-8eef-4e1f4241578b"
    },
    "m_Name": "Seed",
    "m_DefaultRefNameVersion": 0,
    "m_RefNameGeneratedByDisplayName": "",
    "m_DefaultReferenceName": "",
    "m_OverrideReferenceName": "_seed",
    "m_GeneratePropertyBlock": true,
    "m_UseCustomSlotLabel": false,
    "m_CustomSlotLabel": "",
    "m_Precision": 0,
    "overrideHLSLDeclaration": false,
    "hlslDeclarationOverride": 0,
    "m_Hidden": false,
    "m_Value": 163.0,
    "m_FloatType": 0,
    "m_RangeValues": {
        "x": 0.0,
        "y": 1.0
    }
}

{
    "m_SGVersion": 0,
    "m_Type": "UnityEditor.ShaderGraph.DynamicValueMaterialSlot",
    "m_ObjectId": "b5e40673baf68487ae0f517369093477",
    "m_Id": 2,
    "m_DisplayName": "Out",
    "m_SlotType": 1,
    "m_Hidden": false,
    "m_ShaderOutputName": "Out",
    "m_StageCapability": 3,
    "m_Value": {
        "e00": 0.0,
        "e01": 0.0,
        "e02": 0.0,
        "e03": 0.0,
        "e10": 0.0,
        "e11": 0.0,
        "e12": 0.0,
        "e13": 0.0,
        "e20": 0.0,
        "e21": 0.0,
        "e22": 0.0,
        "e23": 0.0,
        "e30": 0.0,
        "e31": 0.0,
        "e32": 0.0,
        "e33": 0.0
    },
    "m_DefaultValue": {
        "e00": 1.0,
        "e01": 0.0,
        "e02": 0.0,
        "e03": 0.0,
        "e10": 0.0,
        "e11": 1.0,
        "e12": 0.0,
        "e13": 0.0,
        "e20": 0.0,
        "e21": 0.0,
        "e22": 1.0,
        "e23": 0.0,
        "e30": 0.0,
        "e31": 0.0,
        "e32": 0.0,
        "e33": 1.0
    }
}

{
    "m_SGVersion": 0,
    "m_Type": "UnityEditor.ShaderGraph.DynamicValueMaterialSlot",
    "m_ObjectId": "b6e21de512859d8abca184bdfc1e4fbb",
    "m_Id": 2,
    "m_DisplayName": "Out",
    "m_SlotType": 1,
    "m_Hidden": false,
    "m_ShaderOutputName": "Out",
    "m_StageCapability": 3,
    "m_Value": {
        "e00": 0.0,
        "e01": 0.0,
        "e02": 0.0,
        "e03": 0.0,
        "e10": 0.0,
        "e11": 0.0,
        "e12": 0.0,
        "e13": 0.0,
        "e20": 0.0,
        "e21": 0.0,
        "e22": 0.0,
        "e23": 0.0,
        "e30": 0.0,
        "e31": 0.0,
        "e32": 0.0,
        "e33": 0.0
    },
    "m_DefaultValue": {
        "e00": 1.0,
        "e01": 0.0,
        "e02": 0.0,
        "e03": 0.0,
        "e10": 0.0,
        "e11": 1.0,
        "e12": 0.0,
        "e13": 0.0,
        "e20": 0.0,
        "e21": 0.0,
        "e22": 1.0,
        "e23": 0.0,
        "e30": 0.0,
        "e31": 0.0,
        "e32": 0.0,
        "e33": 1.0
    }
}

{
    "m_SGVersion": 0,
    "m_Type": "UnityEditor.ShaderGraph.Vector1MaterialSlot",
    "m_ObjectId": "b70bf87fd895d585b99b753525cd0334",
    "m_Id": 2,
    "m_DisplayName": "G",
    "m_SlotType": 1,
    "m_Hidden": false,
    "m_ShaderOutputName": "G",
    "m_StageCapability": 3,
    "m_Value": 0.0,
    "m_DefaultValue": 0.0,
    "m_Labels": [
        "X"
    ]
}

{
    "m_SGVersion": 0,
    "m_Type": "UnityEditor.ShaderGraph.Vector2MaterialSlot",
    "m_ObjectId": "b753a28e01a3b38f8c02fda5b849ea89",
    "m_Id": 0,
    "m_DisplayName": "Tiling",
    "m_SlotType": 1,
    "m_Hidden": false,
    "m_ShaderOutputName": "Out",
    "m_StageCapability": 3,
    "m_Value": {
        "x": 0.0,
        "y": 0.0
    },
    "m_DefaultValue": {
        "x": 0.0,
        "y": 0.0
    },
    "m_Labels": [
        "X",
        "Y"
    ]
}

{
    "m_SGVersion": 0,
    "m_Type": "UnityEditor.ShaderGraph.Vector2MaterialSlot",
    "m_ObjectId": "baeeb1b3f96e2c8c950ca3a727be90da",
    "m_Id": 3,
    "m_DisplayName": "Out",
    "m_SlotType": 1,
    "m_Hidden": false,
    "m_ShaderOutputName": "Out",
    "m_StageCapability": 3,
    "m_Value": {
        "x": 0.0,
        "y": 0.0
    },
    "m_DefaultValue": {
        "x": 0.0,
        "y": 0.0
    },
    "m_Labels": [
        "X",
        "Y"
    ]
}

{
    "m_SGVersion": 0,
    "m_Type": "UnityEditor.ShaderGraph.FractionNode",
    "m_ObjectId": "bb86df7d67ecdf8dbbec1e5f6d2d1f0a",
    "m_Group": {
        "m_Id": "cf9814f72b194885bdb057f58309cb49"
    },
    "m_Name": "Fraction",
    "m_DrawState": {
        "m_Expanded": true,
        "m_Position": {
            "serializedVersion": "2",
            "x": -1593.9998779296875,
            "y": -5.000025749206543,
            "width": 207.99998474121095,
            "height": 278.0
        }
    },
    "m_Slots": [
        {
            "m_Id": "8205137dc304d38eb59af047f15352b1"
        },
        {
            "m_Id": "44a0f1adb6a7da81bb98bff0cc691e6b"
        }
    ],
    "synonyms": [
        "remainder"
    ],
    "m_Precision": 0,
    "m_PreviewExpanded": true,
    "m_PreviewMode": 0,
    "m_CustomColors": {
        "m_SerializableColors": []
    }
}

{
    "m_SGVersion": 0,
    "m_Type": "UnityEditor.ShaderGraph.Vector1MaterialSlot",
    "m_ObjectId": "be39df158f0ec682be389e61a8e46154",
    "m_Id": 0,
    "m_DisplayName": "Repetition",
    "m_SlotType": 1,
    "m_Hidden": false,
    "m_ShaderOutputName": "Out",
    "m_StageCapability": 3,
    "m_Value": 0.0,
    "m_DefaultValue": 0.0,
    "m_Labels": [
        "X"
    ]
}

{
    "m_SGVersion": 1,
    "m_Type": "UnityEditor.ShaderGraph.Internal.Vector2ShaderProperty",
    "m_ObjectId": "c11746b13fc7648a9f750eaacf563c17",
    "m_Guid": {
        "m_GuidSerialized": "2c321218-1670-4cca-b8a1-ce1d5e59cc8e"
    },
    "m_Name": "Tiling",
    "m_DefaultRefNameVersion": 0,
    "m_RefNameGeneratedByDisplayName": "",
    "m_DefaultReferenceName": "",
    "m_OverrideReferenceName": "_tiling",
    "m_GeneratePropertyBlock": true,
    "m_UseCustomSlotLabel": false,
    "m_CustomSlotLabel": "",
    "m_Precision": 0,
    "overrideHLSLDeclaration": false,
    "hlslDeclarationOverride": 0,
    "m_Hidden": false,
    "m_Value": {
        "x": 8.0,
        "y": 8.0,
        "z": 0.0,
        "w": 0.0
    }
}

{
    "m_SGVersion": 1,
    "m_Type": "UnityEditor.ShaderGraph.Internal.Vector1ShaderProperty",
    "m_ObjectId": "c1a1890a7e1e1d8bb89086e2d88753df",
    "m_Guid": {
        "m_GuidSerialized": "4bc7c4ab-452d-484b-9f1c-e2a066c8dbae"
    },
    "m_Name": "Repetition",
    "m_DefaultRefNameVersion": 0,
    "m_RefNameGeneratedByDisplayName": "",
    "m_DefaultReferenceName": "",
    "m_OverrideReferenceName": "_repetition",
    "m_GeneratePropertyBlock": true,
    "m_UseCustomSlotLabel": false,
    "m_CustomSlotLabel": "",
    "m_Precision": 0,
    "overrideHLSLDeclaration": false,
    "hlslDeclarationOverride": 0,
    "m_Hidden": false,
    "m_Value": 3.0,
    "m_FloatType": 0,
    "m_RangeValues": {
        "x": 0.0,
        "y": 1.0
    }
}

{
    "m_SGVersion": 0,
    "m_Type": "UnityEditor.ShaderGraph.DynamicVectorMaterialSlot",
    "m_ObjectId": "c305ce71729d9a82bec8e1c55aebb75d",
    "m_Id": 0,
    "m_DisplayName": "In",
    "m_SlotType": 0,
    "m_Hidden": false,
    "m_ShaderOutputName": "In",
    "m_StageCapability": 3,
    "m_Value": {
        "x": 1.0,
        "y": 1.0,
        "z": 1.0,
        "w": 1.0
    },
    "m_DefaultValue": {
        "x": 0.0,
        "y": 0.0,
        "z": 0.0,
        "w": 0.0
    }
}

{
    "m_SGVersion": 0,
    "m_Type": "UnityEditor.ShaderGraph.DynamicVectorMaterialSlot",
    "m_ObjectId": "cb3c39ce59ce94858cae73ac89713092",
    "m_Id": 2,
    "m_DisplayName": "In",
    "m_SlotType": 0,
    "m_Hidden": false,
    "m_ShaderOutputName": "In",
    "m_StageCapability": 3,
    "m_Value": {
        "x": 0.3499999940395355,
        "y": 0.0,
        "z": 0.0,
        "w": 0.0
    },
    "m_DefaultValue": {
        "x": 0.0,
        "y": 0.0,
        "z": 0.0,
        "w": 0.0
    }
}

{
    "m_SGVersion": 0,
    "m_Type": "UnityEditor.ShaderGraph.FractionNode",
    "m_ObjectId": "ccc5db17d0a5ad80947f669867e247ac",
    "m_Group": {
        "m_Id": "e75d0c327d6d4a57a863729a9543545b"
    },
    "m_Name": "Fraction",
    "m_DrawState": {
        "m_Expanded": true,
        "m_Position": {
            "serializedVersion": "2",
            "x": -673.9998779296875,
            "y": 50.0,
            "width": 208.0,
            "height": 278.0
        }
    },
    "m_Slots": [
        {
            "m_Id": "32b80b854bd7c18b88ec33da007c64a8"
        },
        {
            "m_Id": "959df1c6a79d1d87bf689cfd0382b07c"
        }
    ],
    "synonyms": [
        "remainder"
    ],
    "m_Precision": 0,
    "m_PreviewExpanded": true,
    "m_PreviewMode": 0,
    "m_CustomColors": {
        "m_SerializableColors": []
    }
}

{
    "m_SGVersion": 0,
    "m_Type": "UnityEditor.ShaderGraph.GroupData",
    "m_ObjectId": "cf9814f72b194885bdb057f58309cb49",
    "m_Title": "Apply rotation to UV tiles",
    "m_Position": {
        "x": -2052.999755859375,
        "y": -68.00001525878906
    }
}

{
    "m_SGVersion": 0,
    "m_Type": "UnityEditor.ShaderGraph.DynamicVectorMaterialSlot",
    "m_ObjectId": "d06feefbd0323689be114f13dee21863",
    "m_Id": 0,
    "m_DisplayName": "In",
    "m_SlotType": 0,
    "m_Hidden": false,
    "m_ShaderOutputName": "In",
    "m_StageCapability": 3,
    "m_Value": {
        "x": 0.0,
        "y": 0.0,
        "z": 0.0,
        "w": 0.0
    },
    "m_DefaultValue": {
        "x": 0.0,
        "y": 0.0,
        "z": 0.0,
        "w": 0.0
    }
}

{
    "m_SGVersion": 0,
    "m_Type": "UnityEditor.ShaderGraph.Vector1MaterialSlot",
    "m_ObjectId": "d28abbd4c6d65f8997b6d9ebe7ec2401",
    "m_Id": 4,
    "m_DisplayName": "A",
    "m_SlotType": 1,
    "m_Hidden": false,
    "m_ShaderOutputName": "A",
    "m_StageCapability": 3,
    "m_Value": 0.0,
    "m_DefaultValue": 0.0,
    "m_Labels": [
        "X"
    ]
}

{
    "m_SGVersion": 0,
    "m_Type": "UnityEditor.ShaderGraph.Vector1MaterialSlot",
    "m_ObjectId": "d508c02e83b28f81b13db5d32b6bc8c1",
    "m_Id": 3,
    "m_DisplayName": "B",
    "m_SlotType": 1,
    "m_Hidden": false,
    "m_ShaderOutputName": "B",
    "m_StageCapability": 3,
    "m_Value": 0.0,
    "m_DefaultValue": 0.0,
    "m_Labels": [
        "X"
    ]
}

{
    "m_SGVersion": 0,
    "m_Type": "UnityEditor.ShaderGraph.PropertyNode",
    "m_ObjectId": "d83fb46e71e99d83a94d63a6600d54bc",
    "m_Group": {
        "m_Id": ""
    },
    "m_Name": "Property",
    "m_DrawState": {
        "m_Expanded": true,
        "m_Position": {
            "serializedVersion": "2",
            "x": -3227.0,
            "y": 296.0000305175781,
            "width": 100.99999237060547,
            "height": 34.0
        }
    },
    "m_Slots": [
        {
            "m_Id": "b753a28e01a3b38f8c02fda5b849ea89"
        }
    ],
    "synonyms": [],
    "m_Precision": 0,
    "m_PreviewExpanded": true,
    "m_PreviewMode": 0,
    "m_CustomColors": {
        "m_SerializableColors": []
    },
    "m_Property": {
        "m_Id": "c11746b13fc7648a9f750eaacf563c17"
    }
}

{
    "m_SGVersion": 0,
    "m_Type": "UnityEditor.ShaderGraph.PropertyNode",
    "m_ObjectId": "d870e879a0d1db8a841c61b19745d769",
    "m_Group": {
        "m_Id": "e75d0c327d6d4a57a863729a9543545b"
    },
    "m_Name": "Property",
    "m_DrawState": {
        "m_Expanded": true,
        "m_Position": {
            "serializedVersion": "2",
            "x": -946.9998779296875,
            "y": 40.00000762939453,
            "width": 124.99999237060547,
            "height": 34.0
        }
    },
    "m_Slots": [
        {
            "m_Id": "be39df158f0ec682be389e61a8e46154"
        }
    ],
    "synonyms": [],
    "m_Precision": 0,
    "m_PreviewExpanded": true,
    "m_PreviewMode": 0,
    "m_CustomColors": {
        "m_SerializableColors": []
    },
    "m_Property": {
        "m_Id": "c1a1890a7e1e1d8bb89086e2d88753df"
    }
}

{
    "m_SGVersion": 0,
    "m_Type": "UnityEditor.ShaderGraph.DynamicVectorMaterialSlot",
    "m_ObjectId": "e0b7a717442aca8a8795a79b44801ad1",
    "m_Id": 1,
    "m_DisplayName": "Out",
    "m_SlotType": 1,
    "m_Hidden": false,
    "m_ShaderOutputName": "Out",
    "m_StageCapability": 3,
    "m_Value": {
        "x": 0.0,
        "y": 0.0,
        "z": 0.0,
        "w": 0.0
    },
    "m_DefaultValue": {
        "x": 0.0,
        "y": 0.0,
        "z": 0.0,
        "w": 0.0
    }
}

{
    "m_SGVersion": 0,
    "m_Type": "UnityEditor.ShaderGraph.GroupData",
    "m_ObjectId": "e75d0c327d6d4a57a863729a9543545b",
    "m_Title": "Calculate radial lines and draw smooth edge",
    "m_Position": {
        "x": -1342.9998779296875,
        "y": -59.9998779296875
    }
}

{
    "m_SGVersion": 0,
    "m_Type": "UnityEditor.ShaderGraph.DynamicVectorMaterialSlot",
    "m_ObjectId": "f123b605de230d8aa3592da63b9c3c13",
    "m_Id": 2,
    "m_DisplayName": "Out",
    "m_SlotType": 1,
    "m_Hidden": false,
    "m_ShaderOutputName": "Out",
    "m_StageCapability": 3,
    "m_Value": {
        "x": 0.0,
        "y": 0.0,
        "z": 0.0,
        "w": 0.0
    },
    "m_DefaultValue": {
        "x": 0.0,
        "y": 0.0,
        "z": 0.0,
        "w": 0.0
    }
}

{
    "m_SGVersion": 0,
    "m_Type": "UnityEditor.ShaderGraph.DynamicVectorMaterialSlot",
    "m_ObjectId": "f3e278ae6431038a875e79963ba50d5a",
    "m_Id": 1,
    "m_DisplayName": "B",
    "m_SlotType": 0,
    "m_Hidden": false,
    "m_ShaderOutputName": "B",
    "m_StageCapability": 3,
    "m_Value": {
        "x": 1.0,
        "y": 1.0,
        "z": 1.0,
        "w": 1.0
    },
    "m_DefaultValue": {
        "x": 0.0,
        "y": 0.0,
        "z": 0.0,
        "w": 0.0
    }
}

{
    "m_SGVersion": 0,
    "m_Type": "UnityEditor.ShaderGraph.DynamicVectorMaterialSlot",
    "m_ObjectId": "f43654f72e6ef688aa5daa40982d83b0",
    "m_Id": 1,
    "m_DisplayName": "B",
    "m_SlotType": 0,
    "m_Hidden": false,
    "m_ShaderOutputName": "B",
    "m_StageCapability": 3,
    "m_Value": {
        "x": 1.0,
        "y": 1.0,
        "z": 1.0,
        "w": 1.0
    },
    "m_DefaultValue": {
        "x": 0.0,
        "y": 0.0,
        "z": 0.0,
        "w": 0.0
    }
}

{
    "m_SGVersion": 0,
    "m_Type": "UnityEditor.ShaderGraph.OneMinusNode",
    "m_ObjectId": "f479dfa52aa48280a0b9e9a66d87deef",
    "m_Group": {
        "m_Id": "e75d0c327d6d4a57a863729a9543545b"
    },
    "m_Name": "One Minus",
    "m_DrawState": {
        "m_Expanded": true,
        "m_Position": {
            "serializedVersion": "2",
            "x": -1317.9998779296875,
            "y": 137.00003051757813,
            "width": 124.0,
            "height": 94.0
        }
    },
    "m_Slots": [
        {
            "m_Id": "c305ce71729d9a82bec8e1c55aebb75d"
        },
        {
            "m_Id": "a896711270d5fe8fb1f0a81a85888bef"
        }
    ],
    "synonyms": [
        "complement",
        "invert",
        "opposite"
    ],
    "m_Precision": 0,
    "m_PreviewExpanded": false,
    "m_PreviewMode": 0,
    "m_CustomColors": {
        "m_SerializableColors": []
    }
}

{
    "m_SGVersion": 0,
    "m_Type": "UnityEditor.ShaderGraph.DynamicVectorMaterialSlot",
    "m_ObjectId": "f813a7a46f2ac98f965592691bcd7414",
    "m_Id": 0,
    "m_DisplayName": "In",
    "m_SlotType": 0,
    "m_Hidden": false,
    "m_ShaderOutputName": "In",
    "m_StageCapability": 3,
    "m_Value": {
        "x": 0.0,
        "y": 0.0,
        "z": 0.0,
        "w": 0.0
    },
    "m_DefaultValue": {
        "x": 0.0,
        "y": 0.0,
        "z": 0.0,
        "w": 0.0
    }
}

