%YAML 1.1
%TAG !u! tag:unity3d.com,2011:
--- !u!114 &11400000
MonoBehaviour:
  m_ObjectHideFlags: 0
  m_CorrespondingSourceObject: {fileID: 0}
  m_PrefabInstance: {fileID: 0}
  m_PrefabAsset: {fileID: 0}
  m_GameObject: {fileID: 0}
  m_Enabled: 1
  m_EditorHideFlags: 0
  m_Script: {fileID: 11500000, guid: e9eacbbef6ad04d14aa7932d84bb15ca, type: 3}
  m_Name: CS_JGB_Merchant_2_SO
  m_EditorClassIdentifier: 
  captainName: CS_JGB_Merchant_SO
  _personalLog:
    logText: 
    clearOnStart: 1
    hideLogTextWhilePlaying: 1
  aiTree:
    aiScript: {fileID: 0}
    isScriptableObject: 1
    child:
      rid: 1232986129795383327
    utilityMethods:
    - ' null'
    - Utility___0
    - Utility__75
    - Utility_100
    - Utility_Default
    - Utility_Random
    utilityDecoratorMethods:
    - ' --- Utility Decorator Methods ---'
    - UtilityDecorator_NoChange
    - ' --- Utility Methods (no aFloat parameter) ---'
    - Utility___0
    - Utility__75
    - Utility_100
    - Utility_Default
    - Utility_Random
    executeMethods:
    - ' null'
    - AreEnoughCannonLoaded
    - Execute_Busy
    - Execute_Done
    - Execute_Failed
    - FindRouteToPort
    - Fire
    - FollowRouteToPort
    - IsAbleToHealInPort
    - IsCloseEnoughToSettlement
    - IsEnemyInRange
    - RunAway
    - RunToPort
    - TurnToAim
  selectedNodeName: ( None Selected )
  minPercentOfMapToTraverse: 30
  useDiagonalNavigation: 1
  navPointIsCloseEnough: 10
  varianceOnStraightLines: 20
  startMapLoc: {x: 0, y: 0}
  endMapLoc: {x: 0, y: 0}
  references:
    version: 2
    RefIds:
    - rid: 1232986129795383327
      type: {class: AINode_Composite, ns: XnTools.XnAI, asm: Assembly-CSharp}
      data:
        _nodeName: Root Composite Node
        aiTree:
          aiScript: {fileID: 0}
          isScriptableObject: 1
          child:
            rid: 1232986129795383327
          utilityMethods:
          - ' null'
          - Utility___0
          - Utility__75
          - Utility_100
          - Utility_Default
          - Utility_Random
          utilityDecoratorMethods:
          - ' --- Utility Decorator Methods ---'
          - UtilityDecorator_NoChange
          - ' --- Utility Methods (no aFloat parameter) ---'
          - Utility___0
          - Utility__75
          - Utility_100
          - Utility_Default
          - Utility_Random
          executeMethods:
          - ' null'
          - AreEnoughCannonLoaded
          - Execute_Busy
          - Execute_Done
          - Execute_Failed
          - FindRouteToPort
          - Fire
          - FollowRouteToPort
          - IsAbleToHealInPort
          - IsCloseEnoughToSettlement
          - IsEnemyInRange
          - RunAway
          - RunToPort
          - TurnToAim
        thisNodeSelected: 0
        _status: 0
        _utility: 0
        compositeType: 0
        compositeOrder: 0
        childList:
        - rid: 1232986129795383328
        currentNode: -1
        utilityOrder: []
    - rid: 1232986129795383328
      type: {class: AINode_Composite, ns: XnTools.XnAI, asm: Assembly-CSharp}
      data:
        _nodeName: => Navigate to distant port
        aiTree:
          aiScript: {fileID: 0}
          isScriptableObject: 1
          child:
            rid: 1232986129795383327
          utilityMethods:
          - ' null'
          - Utility___0
          - Utility__75
          - Utility_100
          - Utility_Default
          - Utility_Random
          utilityDecoratorMethods:
          - ' --- Utility Decorator Methods ---'
          - UtilityDecorator_NoChange
          - ' --- Utility Methods (no aFloat parameter) ---'
          - Utility___0
          - Utility__75
          - Utility_100
          - Utility_Default
          - Utility_Random
          executeMethods:
          - ' null'
          - AreEnoughCannonLoaded
          - Execute_Busy
          - Execute_Done
          - Execute_Failed
          - FindRouteToPort
          - Fire
          - FollowRouteToPort
          - IsAbleToHealInPort
          - IsCloseEnoughToSettlement
          - IsEnemyInRange
          - RunAway
          - RunToPort
          - TurnToAim
        thisNodeSelected: 0
        _status: 0
        _utility: 0
        compositeType: 0
        compositeOrder: 0
        childList:
        - rid: 1232986129795383329
        - rid: 1232986129795383330
        currentNode: -1
        utilityOrder: []
    - rid: 1232986129795383329
      type: {class: AINode_Leaf, ns: XnTools.XnAI, asm: Assembly-CSharp}
      data:
        _nodeName: Find a distant port and route to it
        aiTree:
          aiScript: {fileID: 0}
          isScriptableObject: 1
          child:
            rid: 1232986129795383327
          utilityMethods:
          - ' null'
          - Utility___0
          - Utility__75
          - Utility_100
          - Utility_Default
          - Utility_Random
          utilityDecoratorMethods:
          - ' --- Utility Decorator Methods ---'
          - UtilityDecorator_NoChange
          - ' --- Utility Methods (no aFloat parameter) ---'
          - Utility___0
          - Utility__75
          - Utility_100
          - Utility_Default
          - Utility_Random
          executeMethods:
          - ' null'
          - AreEnoughCannonLoaded
          - Execute_Busy
          - Execute_Done
          - Execute_Failed
          - FindRouteToPort
          - Fire
          - FollowRouteToPort
          - IsAbleToHealInPort
          - IsCloseEnoughToSettlement
          - IsEnemyInRange
          - RunAway
          - RunToPort
          - TurnToAim
        thisNodeSelected: 0
        _status: 0
        _utility: 0
        utilityMethod: ' null'
        executeMethod: FindRouteToPort
    - rid: 1232986129795383330
      type: {class: AINode_Leaf, ns: XnTools.XnAI, asm: Assembly-CSharp}
      data:
        _nodeName: Follow the A* route
        aiTree:
          aiScript: {fileID: 0}
          isScriptableObject: 1
          child:
            rid: 1232986129795383327
          utilityMethods:
          - ' null'
          - Utility___0
          - Utility__75
          - Utility_100
          - Utility_Default
          - Utility_Random
          utilityDecoratorMethods:
          - ' --- Utility Decorator Methods ---'
          - UtilityDecorator_NoChange
          - ' --- Utility Methods (no aFloat parameter) ---'
          - Utility___0
          - Utility__75
          - Utility_100
          - Utility_Default
          - Utility_Random
          executeMethods:
          - ' null'
          - AreEnoughCannonLoaded
          - Execute_Busy
          - Execute_Done
          - Execute_Failed
          - FindRouteToPort
          - Fire
          - FollowRouteToPort
          - IsAbleToHealInPort
          - IsCloseEnoughToSettlement
          - IsEnemyInRange
          - RunAway
          - RunToPort
          - TurnToAim
        thisNodeSelected: 0
        _status: 0
        _utility: 0
        utilityMethod: ' null'
        executeMethod: FollowRouteToPort
